ETL Exercises Notebook
…
# We need to join both tables so we want to know the region of the stock
# index and then extract only 2009 values
query = "
SELECT p.stock_index, date, open, high, 
low, close, adj_close, volume
FROM IndexPrice p INNER JOIN IndexMeta m ON(p.stock_index == m.stock_index)
WHERE (m.region == 'United States' OR m.region == 'Europe') AND
strftime('%Y', p.date) == '2009' 
"

table <- tbl(conn, sql(query))

table %>% collect() # will execute the query

## # A tibble: 760 × 8
##    stock_index date       open        high        low    close  adj_close volume
##    <chr>       <chr>      <chr>       <chr>       <chr>  <chr>  <chr>     <chr> 
##  1 NYA         2009-01-02 5755.759766 5937.02002  5732.… 5915.… 5915.729… 40482…
##  2 NYA         2009-01-05 5915.720215 5963.700195 5839.… 5908.… 5908.430… 54139…
##  3 NYA         2009-01-06 5908.390137 6014        5901.… 5968.… 5968.839… 53926…
##  4 NYA         2009-01-07 5968.839844 5968.839844 5770.… 5799.… 5799.049… 47049…
##  5 NYA         2009-01-08 5799.049805 5839.490234 5741.… 5837.… 5837.140… 49915…
##  6 NYA         2009-01-09 5838.569824 5842.060059 5691.… 5702.… 5702.370… 47165…
##  7 NYA         2009-01-12 5702.379883 5702.379883 5515.… 5551.… 5551.029… 47250…
##  8 NYA         2009-01-13 5551.029785 5560.450195 5476.… 5538.… 5538.839… 55674…
##  9 NYA         2009-01-14 5538.689941 5538.689941 5284.… 5328.… 5328.680… 54078…
## 10 NYA         2009-01-15 5328.680176 5394.339844 5161.… 5347.… 5347.75   78073…
## # … with 750 more rows
…
# We need to join both tables so we want to know the currency of the stock
# index
query <- "
SELECT p.stock_index, adj_close, volume
FROM IndexPrice p INNER JOIN IndexMeta m ON(p.stock_index == m.stock_index)
WHERE (m.currency == 'EUR' OR m.currency == 'USD') AND 
strftime('%Y', p.date) BETWEEN '2007' AND '2009'
"

table <- tbl(conn, sql(query))

table %>% collect() # will execute the query

## # A tibble: 3,039 × 3
##    stock_index adj_close   volume    
##    <chr>       <chr>       <chr>     
##  1 NYA         9133.080078 3429160000
##  2 NYA         9113.160156 0         
##  3 NYA         9025.040039 2919400000
##  4 NYA         9041.120117 2763340000
##  5 NYA         9023.900391 3038380000
##  6 NYA         9003.120117 2764660000
##  7 NYA         9063.089844 2857870000
##  8 NYA         9139.94043  2686480000
##  9 NYA         9139.55957  2599530000
## 10 NYA         9146.259766 2690270000
## # … with 3,029 more rows
…
## [1] "state"           "electoral_votes" "clinton"         "trump"          
## [5] "others"

query <- "
SELECT p.state, p.enddate, p.grade, p.samplesize, p.adjpoll_clinton, 
p.adjpoll_trump, r.electoral_votes, r.clinton, r.trump
FROM Polls p INNER JOIN Results r ON(p.state == r.state)
WHERE p.state == 'Ohio' OR p.state == 'Pennsylvania'
ORDER BY p.enddate DESC
"

table <- tbl(conn, sql(query))
table %>% collect() # will execute the query

## # A tibble: 240 × 9
##    state        enddate    grade samplesize adjpoll_clinton adjpoll_trump electoral_votes
##    <chr>        <chr>      <chr>      <int>           <dbl>         <dbl>           <int>
##  1 Ohio         2016-11-07 C-          2860            40.6          44.3              18
##  2 Pennsylvania 2016-11-07 C-          2845            44.6          42.3              20
##  3 Pennsylvania 2016-11-07 B           1177            43.0          42.8              20
##  4 Ohio         2016-11-07 B           1070            40.3          43.7              18
##  5 Ohio         2016-11-06 B-          1781            41.8          47.3              18
##  6 Pennsylvania 2016-11-06 B-          1220            45.8          39.3              20
##  7 Pennsylvania 2016-11-06 C+           525            44.6          46.1              20
##  8 Ohio         2016-11-06 C+           525            44.6          43.1              18
##  9 Ohio         2016-11-06 A-           552            46.2          44.9              18
## 10 Pennsylvania 2016-11-06 A-           498            47.6          44.4              20
## # … with 230 more rows, and 2 more variables: clinton <dbl>, trump <dbl>
…
## [1] "PetID"            "Date"             "ProcedureType"    "ProcedureSubCode"

query <- "
SELECT h.date, AVG(d.price)
FROM ProceduresHistory h INNER JOIN ProceduresDetails d 
    ON(h.ProcedureType == d.ProcedureType AND 
        h.ProcedureSubCode == d.ProcedureSubCode) 
GROUP BY h.date
"

table <- tbl(conn, sql(query))
table %>% collect() # will execute the query

## # A tibble: 356 × 2
##    Date       `AVG(d.price)`
##    <chr>               <dbl>
##  1 2016-01-10           10  
##  2 2016-01-11           10  
##  3 2016-01-12           91.4
##  4 2016-01-13           16.7
##  5 2016-01-14           15  
##  6 2016-01-15          125  
##  7 2016-01-16           31.0
##  8 2016-01-17           41.5
##  9 2016-01-18           50  
## 10 2016-01-19          164. 
## # … with 346 more rows
…
fechas_horribles <- paste(
  crear_dias("2020-12-28", "2021-12-27"),
  crear_dias("2021-01-03", "2022-01-02"),
  sep = " - "
)

df <- tibble(
  semana = fechas_horribles,
  metrica = runif(length(fechas_horribles))
)

df

## # A tibble: 53 × 2
##    semana                  metrica
##    <chr>                     <dbl>
##  1 28/12/2020 - 03/01/2021  0.317 
##  2 04/01/2021 - 10/01/2021  0.464 
##  3 11/01/2021 - 17/01/2021  0.324 
##  4 18/01/2021 - 24/01/2021  0.877 
##  5 25/01/2021 - 31/01/2021  0.136 
##  6 01/02/2021 - 07/02/2021  0.859 
##  7 08/02/2021 - 14/02/2021  0.248 
##  8 15/02/2021 - 21/02/2021  0.868 
##  9 22/02/2021 - 28/02/2021  0.0633
## 10 01/03/2021 - 07/03/2021  0.570 
## # … with 43 more rows
…
## [1] 607

DBI::dbAppendTable(conn, 'N100', n100)

## [1] 619

# Check tables
DBI::dbListTables(conn)

## [1] "IXIC"       "IndexMeta"  "IndexPrice" "N100"       "NYA"

tbl(conn, sql('SELECT * FROM NYA')) %>% collect()

## # A tibble: 607 × 3
##     date adj_close smoothed
##    <dbl>     <dbl>    <dbl>
##  1 17898    11384.      NA 
##  2 17899    11190.      NA 
##  3 17900    11533.      NA 
##  4 17903    11606.      NA 
##  5 17904    11716.      NA 
##  6 17905    11778.      NA 
##  7 17906    11839.      NA 
##  8 17907    11848.   11776.
##  9 17910    11799.   11819.
## 10 17911    11869.   11881.
## # … with 597 more rows
…
